…
Just a quick heads up: the full code for this week’s #TidyTuesday can be found on my (github)[https://github.com/MaiaPelletier/tidytuesday].

First things first, we have to load some useful packages, get the data, and see what it looks like.

# Load libraries
library(tidyverse)    # All the fun tidy functions!
library(skimr)        # Gives an awesome data summary for exploration  
library(lubridate)    # For working with dates

# Read data
tdf_winners <- read_csv('https://raw.githubusercontent.com/rfordatascience/tidytuesday/master/data/2020/2020-04-07/tdf_winners.csv')
tdf_winners

## # A tibble: 106 x 19
##    edition start_date winner_name winner_team distance time_overall time_margin
##      <dbl> <date>     <chr>       <chr>          <dbl>        <dbl>       <dbl>
##  1       1 1903-07-01 Maurice Ga~ La Françai~     2428         94.6        2.99
##  2       2 1904-07-02 Henri Corn~ Conte           2428         96.1        2.27
##  3       3 1905-07-09 Louis Trou~ Peugeot–Wo~     2994         NA         NA   
##  4       4 1906-07-04 René Potti~ Peugeot–Wo~     4637         NA         NA   
##  5       5 1907-07-08 Lucien Pet~ Peugeot–Wo~     4488         NA         NA   
##  6       6 1908-07-13 Lucien Pet~ Peugeot–Wo~     4497         NA         NA   
##  7       7 1909-07-05 François F~ Alcyon–Dun~     4498         NA         NA   
##  8       8 1910-07-01 Octave Lap~ Alcyon–Dun~     4734         NA         NA   
##  9       9 1911-07-02 Gustave Ga~ Alcyon–Dun~     5343         NA         NA   
## 10      10 1912-06-30 Odile Defr~ Alcyon–Dun~     5289         NA         NA   
## # ... with 96 more rows, and 12 more variables: stage_wins <dbl>,
## #   stages_led <dbl>, height <dbl>, weight <dbl>, age <dbl>, born <date>,
## #   died <date>, full_name <chr>, nickname <chr>, birth_town <chr>,
## #   birth_country <chr>, nationality <chr>
…
